B0003-066	 0  3 40.294	-6 40 17.427	BL	19.5	0.347
B0005-239	 0  5 27.472	-23 56 0.11687	Q	17	1.41
B0008-264	 0  8 28.89	-26 29 14.907	Q	19	1.096
B0013-005	 0 13 37.355	 0 31 52.623	Q	19.5	1.575
B0022-044	 0 22 12.738	-4 28 38.597	Q	20	1.946
B0027-426	 0 27 51.8	-42 41 24.997	Q	19	0.495
B0039-407	 0 39 37.6	-40 47 5.9969	Q	18.5	2.478
B0047-579	 0 47 48.16	-57 54 47.167	Q	17.8	1.797
B0048-071	 0 48 36.215	-7  6 20.907	Q	19	1.975
B0048-427	 0 48 49.023	-42 42 52.047	Q	18.8	1.749
B0056-572	 0 56 38.578	-57 15 22.427	Q	18.3	0
B0100-760	 1  0 55.8	-76  2 58.997	Q	18.2	1.015
B0104-275	 1  4 2.0655	-27 34 13.947	Q	19	2.492
B0104-408	 1  4 27.6	-40 50 20.997	Q	19	0.584
B0106+013	 1  6 4.5005	 1 18 59.603	Q	18	2.094
B0107-610	 1  7 17.161	-61  5 46.927	Q	21.4	0
B0108-079	 1  8 19.011	-7 57 37.607	Q	19	1.776
B0112-017	 1 12 43.927	-1 42 55.087	Q	18	1.365
B0113-118	 1 13 43.224	-11 52 4.647	Q	18.5	0.67
B0113-283	 1 13 1.5324	-28 20 45.577	Q	19	2.555
B0115-016	 1 15 42.205	-1 36 16.627	Q	22.5	1.162
B0116-219	 1 16 32.412	-21 57 15.407	Q	19	1.165
B0122-003	 1 22 55.181	 0 21 31.333	Q	17	1.08
B0130-171	 1 30 17.69	-17 10 12.027	Q	19	1.02
B0133-204	 1 33 13.641	-20 24 4.3771	Q	18	1.144
B0135-247	 1 35 17.115	-24 46 8.8371	Q	16.9	0.837
B0136-059	 1 36 20.899	-5 55 21.007	Q	20	2.004
B0142-278	 1 42 44.97	-27 48 35.897	Q	18.5	1.155
B0150-334	 1 50 56.97	-33 25 10.097	Q	16.5	0.61
B0152-513	 1 52 25.4	-51 22 31.997	Q	18.8	1.581
B0157+011	 1 57 29.44	 1 10 41.403	Q	18.5	1.17
B0202-172	 2  2 34.518	-17 15 39.587	Q	18	1.74
B0208-512	 2  8 56.958	-51 15 7.7973	Q	17.6	1.003
B0213-026	 2 13 9.8775	-2 36 51.527	Q	21.6	1.177
B0215+015	 2 15 14.135	 1 31 0.062604	BL	18.5	1.715
B0216+011	 2 16 32.43	 1  7 12.903	Q	20	1.623
B0219-164	 2 19 38.289	-16 28 55.577	Q	19	0.7
B0220-349	 2 20 49.59	-34 55 4.4974	Q	22	1.49
B0226-038	 2 26 22.083	-3 50 58.577	Q	17.5	2.064
B0229-398	 2 29 52.07	-39 48 58.498	Q	22.3	1.646
B0230-790	 2 30 28.726	-79  1 0.98752	Q	18.6	1.07
B0234-301	 2 34 21.61	-30  6 56.098	Q	18	2.102
B0237-027	 2 37 13.722	-2 47 32.928	Q	19	1.116
B0240-060	 2 40 43.247	-6  3 37.558	Q	19	1.805
B0244-470	 2 44 13.4	-47  3 49.998	Q?	18.5	0
B0252-549	 2 52 0.26228	-54 54 2.4777	Q	17.9	0.537
B0254-334	 2 54 39.41	-33 27 22.998	Q	17	1.915
B0256-393	 2 56 18.465	-39 21 37.858	Q	19.6	3.449
B0302-623	 3  2 48.139	-62 23 4.1678	Q	19.1	0
B0308-611	 3  8 51.287	-61  9 58.388	Q	18.6	0
B0310+013	 3 10 8.5505	 1 22 4.7021	Q	18.5	0.66
B0312-770	 3 12 56.4	-77  2 58.998	Q	17.2	0.223
B0315-282	 3 15 26.88	-28 14 13.498	Q	20	1.166
B0325-222	 3 25 47.501	-22 12 27.368	Q	19	2.22
B0327-241	 3 27 43.879	-24  7 23.148	Q	18.8	0.888
B0329-255	 3 29 0.4614	-25 34 53.288	Q	17.1	2.685
B0332-403	 3 32 25.238	-40 18 23.818	Q	18.5	1.445
B0333-729	 3 33 3.2499	-72 59 4.3981	Q	19.3	0
B0334-131	 3 34 13.86	-13 11 54.998	Q	19	1.303
B0335-122	 3 35 33.372	-12 13 51.178	Q	21.5	3.45
B0335-364	 3 35 0.020356	-36 25 54.398	Q	18	1.537
B0336-019	 3 36 58.958	-1 56 16.968	Q	18.4	0.852
B0338-214	 3 38 23.287	-21 29 7.9782	BL	17.5	0
B0341-256	 3 41 12.163	-25 39 44.298	Q	19	1.419
B0346-279	 3 46 34.032	-27 58 21.008	Q	19.5	0.991
B0347-211	 3 47 45.785	-21 11 50.548	Q	21.1	2.944
B0348-120	 3 48 49.167	-12  2 21.448	Q	19.5	1.52
B0352-164	 3 52 7.9624	-16 25 9.0083	Q	19	1.187
B0355-079	 3 55 17.533	-7 59 48.918	Q	18	1.05
B0355-483	 3 55 52.515	-48 20 49.228	Q	17.5	1.016
B0400-319	 4  0 23.611	-31 55 41.998	Q	19.5	1.288
B0402-362	 4  2 2.6203	-36 13 11.498	Q	16.5	1.417
B0403-132	 4  3 13.986	-13 16 18.198	Q	17.1	0.571
B0405-331	 4  5 38.5	-33 11 41.799	Q	19	2.562
B0405-385	 4  5 11.95	-38 34 26.098	Q	18	1.285
B0406-127	 4  6 45.325	-12 46 39.159	Q	18.5	1.563
B0410-519	 4 10 19.1	-51 57 0.99856	Q	17.5	0
B0414-189	 4 14 23.359	-18 58 29.759	Q	18	1.536
B0420+022	 4 20 16.04	 2 12 30.001	Q	19.5	2.277
B0420-014	 4 20 43.545	-1 27 28.749	Q	18	0.914
B0421+019	 4 21 32.69	 1 57 33.001	Q	17.5	2.048
B0422+004	 4 22 12.5	 0 29 17.101	BL	16	0.31
B0422-380	 4 22 56.29	-38  3 9.8987	Q	16.5	0.78
B0431-512	 4 31 4.2002	-51 15 43.999	Q	17.7	0.557
B0434-188	 4 34 48.972	-18 50 48.199	Q	20	2.702
B0436-129	 4 36 15.599	-12 56 56.819	Q	19	1.277
B0438-436	 4 38 43.192	-43 38 53.579	Q	19.5	2.863
B0440-285	 4 40 38.057	-28 31 7.0289	Q	19	1.952
B0448-187	 4 48 23.677	-18 42 3.929	Q	19	2.05
B0448-392	 4 48 0.47032	-39 16 15.399	Q	17.5	1.288
B0451-282	 4 51 15.136	-28 12 29.419	Q	19	2.564
B0454-234	 4 54 57.306	-23 29 28.349	Q	18.5	1.003
B0458-020	 4 58 41.35	-2  3 33.899	Q	20	2.286
B0511-220	 5 11 41.823	-22  2 41.279	Q	19.5	1.296
B0514-161	 5 14 1.0824	-16  6 22.649	Q	18	1.278
B0522-611	 5 22 0.38711	-61 10 41.429	Q	19	1.4
B0524-460	 5 24 23	-43 20 35	Q	17.3	1.479
B0528-250	 5 28 5.2094	-25  5 44.65	Q	19	2.813
B0532-378	 5 32 35.258	-37 49 21.47	Q	19.5	1.668
B0534-340	 5 34 39.57	-34  2 58.1	Q	18.3	0.683
B0537-158	 5 37 17.165	-15 52 4.6497	Q	18	0.947
B0537-286	 5 37 56.938	-28 41 28.07	Q	20	3.11
B0537-441	 5 37 21.085	-44  6 44.68	Q	15	0.894
B0539-057	 5 39 11.002	-5 43 15	Q	20	0.893
B0601-172	 6  1 44.77	-17 16 15.82	Q	20	2.711
B0602-424	 6  2 52.493	-42 25 14.1	Q	19	0.611
B0605-085	 6  5 36.034	-8 34 20.29	Q	18	0.872
B0606-223	 6  6 53.387	-22 19 46.24	Q	20	1.926
B0607-157	 6  7 25.989	-15 42 3.3001	Q	18	0.324
B0610-316	 6 10 36.98	-31 38 6.6001	Q	18.5	0.873
B0610-436	 6 10 58.458	-43 36 57.15	Q	19	3.461
B0618-252	 6 18 29.771	-25 13 52.28	Q	18.2	1.9
B0622-441	 6 22 2.7003	-44 11 23	Q	17.5	0.688
B0629-418	 6 29 37.67	-41 52 14.37	Q	17	1.416
B0630-261	 6 30 5.3684	-26 11 58.47	Q	20.5	0.717
B0637-752	 6 37 23.3	-75 13 37.001	Q	17.2	0.651
B0642-349	 6 42 37.45	-34 56 34.001	Q	18.5	2.165
B0646-306	 6 46 19.22	-30 40 54.301	Q	20.4	1.153
B0700-465	 7  0 8.8573	-46 30 13.581	Q	19.5	0.818
B0736+017	 7 36 42.517	 1 44 0.23872	Q	18	0.191
B0738-674	 7 38 49.7	-67 28 50.001	Q	19.8	1.663
B0743-006	 7 43 21.052	 0 36 55.739	Q	18	0.994
B0805-077	 8  5 49.56	-7 42 22.332	Q	19	1.837
B0806-710	 8  6 46.59	-71  3 26.902	Q	20	0.33
B0834-201	 8 34 24.64	-20  6 29.602	Q	19	2.752
B0834-223	 8 34 38.521	-22 22 40.172	Q	18	0.837
B0837+012	 8 37 14.81	 1 15 6.298	Q	19	1.123
B0859-140	 8 59 54.952	-14  3 38.762	Q	16.6	1.333
B0902-256	 9  2 40.886	-25 40 51.392	Q	18	1.635
B0906+015	 9  6 35.186	 1 33 48.228	Q	18	1.02
B0915-213	 9 15 10.445	-21 18 57.082	Q	18.5	0.847
B0919-260	 9 19 16.71	-26  5 54.462	Q	19	2.3
B0922+005	 9 22 33.68	 0 32 12.898	Q	18.5	1.72
B0925-203	 9 25 33.548	-20 21 44.862	Q	16.3	0.348
B0928+008	 9 28 17.99	 0 48 12.598	Q	19	0.505
B0930-338	 9 30 30.03	-33 52 38.602	Q	19.5	0.936
B0933-333	 9 33 1.7104	-33 19 12.003	Q	20	2.906
B0945-321	 9 45 58.86	-32  9 48.503	Q	19	2.14
B1004-018	10  4 31.718	-1 52 30.563	Q	19.2	1.212
B1004-217	10  4 25.504	-21 44 40.383	Q	16.4	0.33
B1005-333	10  5 18.54	-33 18 26.903	Q	18	1.837
B1010-427	10 10 32.3	-42 43 39.003	Q	17.5	2.954
B1016-311	10 16 12.53	-31  8 51.303	Q	18.5	0.794
B1021-323	10 21 44.13	-32 19 1.6029	Q	19.5	1.568
B1022-102	10 22 27.6	-10 16 27.923	Q	16.8	2
B1030-357	10 30 51.8	-35 46 31.103	Q	20.5	1.455
B1032-199	10 32 37.369	-19 56 2.0429	Q	18.5	2.198
B1034-293	10 34 55.831	-29 18 26.853	Q	17	0.312
B1034-374	10 34 38.16	-37 28 35.103	Q	18.5	1.821
B1036-154	10 36 39.48	-15 25 28.023	Q	19.5	0.525
B1036-431	10 36 3.0604	-43 10 8.8029	Q	18.5	1.356
B1044-128	10 44 35.092	-12 52 42.133	Q	18	1.288
B1045-188	10 45 40.099	-18 53 43.963	Q	19	0.595
B1048-313	10 48 43.39	-31 22 18.503	Q	18.5	1.429
B1055+018	10 55 55.318	 1 50 3.657	Q	18.2	0.888
B1055-243	10 55 29.936	-24 17 44.513	Q	19.9	1.086
B1055-248	10 55 28.893	-24 53 24.683	Q	18.7	0.593
B1055-301	10 55 37.28	-30  8 51.003	Q	19.5	2.523
B1057-797	10 57 49.73	-79 47 47.733	Q	19	0
B1101-325	11  1 8.4304	-32 35 8.103	Q	15.4	0.355
B1102-242	11  2 19.813	-24 15 13.723	Q	19.3	1.666
B1104-445	11  4 50.377	-44 32 52.863	Q	18	1.598
B1105-304	11  5 19.45	-30 27 21.003	Q	20.2	0.74
B1110-355	11 10 37.7	-35 33 23.103	Q	19	1.695
B1115-122	11 15 46.131	-12 16 29.523	Q	19	1.739
B1118-056	11 18 52.524	-5 37 29.293	Q	19.4	1.297
B1118-140	11 18 24.773	-14  4 3.0931	Q	17.5	1.114
B1124-186	11 24 34.023	-18 40 46.233	Q	19	1.048
B1127-145	11 27 35.672	-14 32 54.313	Q	16.9	1.184
B1133-032	11 33 51.249	-3 13 53.153	Q	19.5	1.648
B1136-135	11 36 38.517	-13 34 5.9831	Q	16	0.557
B1136-156	11 36 57.608	-15 36 13.853	Q	20	2.625
B1142-225	11 42 50.231	-22 33 51.383	Q	22.3	1.141
B1143-245	11 43 36.372	-24 30 52.713	Q	18	1.94
B1143-287	11 43 54.812	-28 42 38.233	Q	20	0.45
B1144-379	11 44 30.83	-37 55 31.003	BL	18	1.048
B1145-071	11 45 18.298	-7  8 0.58313	Q	18.5	1.342
B1148-001	11 48 10.129	 0  7 13.027	Q	17.6	1.978
B1148-171	11 48 30.375	-17  7 18.493	Q	19	1.751
B1149-084	11 49 43.83	-8 24 22.503	Q	18.5	2.37
B1156-221	11 56 37.763	-22 11 54.563	Q	20	0.565
B1157-215	11 57 18.316	-21 32 11.353	Q	18.5	0.927
B1200-051	12  0 0.43448	-5 11 20.233	Q	18	0.381
B1206-238	12  6 27.685	-23 49 38.983	Q	18	1.299
B1206-399	12  6 59.4	-39 59 30.003	Q	16.1	0.966
B1213-102	12 13 49.833	-10 16 35.473	Q	21.8	0.636
B1217+023	12 17 38.77	 2 20 20.497	Q	16.5	0.24
B1226+023	12 26 32.96	 2 19 39.997	Q	12.8	0.158
B1228-113	12 28 20.042	-11 22 35.843	Q	22	3.528
B1237-101	12 37 7.2825	-10  7 0.43309	Q	18	0.753
B1243-072	12 43 28.792	-7 14 23.373	Q	18	1.286
B1244-255	12 44 6.7185	-25 31 26.553	Q	17	0.633
B1250-330	12 50 14.901	-33  3 42.003	Q	21.4	0.859
B1253-055	12 53 35.836	-5 31 7.873	Q	17.8	0.536
B1255-316	12 55 15.201	-31 39 3.503	Q	18.5	1.924
B1256-177	12 55 59.21	-17 43 52.103	Q	20.2	1.956
B1256-220	12 56 13.945	-22  3 20.233	Q	20	1.306
B1256-229	12 56 27.612	-22 54 27.993	Q	18	1.365
B1302-034	13  2 8.7215	-3 29 58.443	Q	19.4	1.25
B1302-102	13  2 55.853	-10 17 16.253	Q	15.2	0.286
B1313-333	13 13 20.046	-33 23 9.573	Q	19.5	1.21
B1316-120	13 16 33.508	-12  1 47.133	Q*	18	0
B1317+019	13 17 53.72	 1 56 19.597	Q	19.5	1.232
B1318-263	13 18 28.911	-26 20 28.203	Q	20.4	2.027
B1319-093	13 19 59.267	-9 21 57.893	Q	18	1.864
B1320-338	13 20 27.791	-33 51 33.903	Q	20	1.346
B1321-105	13 21 47.65	-10 33 46.603	Q	18.5	0.872
B1327-311	13 27 29.971	-31  7 31.003	Q	18.5	1.326
B1328-263	13 28 25.19	-26 23 43.133	Q	17.4	0.883
B1334-127	13 34 59.808	-12 42 9.6229	Q	18.5	0.541
B1336-237	13 36 15.75	-23 46 1.2729	Q	19	0.657
B1336-260	13 36 32.492	-26  5 18.273	Q	20.5	1.51
B1337-013	13 37 30.119	-1 22 35.933	Q	19.1	1.619
B1339-287	13 39 25.879	-28 45 34.793	Q	19.5	1.442
B1346-113	13 46 51.537	-11 18 1.1428	Q	17.5	0.34
B1348-289	13 48 55.864	-28 57 29.083	Q	20	1.034
B1351-018	13 51 32.037	-1 51 19.943	Q	20.9	3.709
B1352-104	13 52 6.8345	-10 26 20.653	Q	17.5	0.332
B1356+022	13 56 54.602	 2 14 26.437	Q	18.3	1.329
B1359-281	13 59 10.6	-28  7 58.383	Q	20.9	0.803
B1401+000	14  1 38.295	 0  0 56.377	Q	19	0.802
B1402-012	14  2 11.297	-1 16 1.6827	Q	18.2	2.518
B1403-085	14  3 21.651	-8 33 49.303	Q	18.5	1.763
B1404-342	14  4 57.201	-34 17 14.203	Q	17.7	1.122
B1406-076	14  6 17.903	-7 38 15.813	Q	20	1.494
B1406-267	14  6 58.432	-26 43 27.763	Q	21.8	2.43
B1415-349	14 15 58.711	-34 55 54.403	Q	19.5	1.544
B1424-418	14 24 46.723	-41 52 54.493	Q	18	1.522
B1430-155	14 30 36.126	-15 35 34.782	Q	22.8	1.583
B1430-178	14 30 10.653	-17 48 24.242	Q	19	2.331
B1435-218	14 35 18.664	-21 51 57.782	Q	17.9	1.194
B1437-153	14 37 11.341	-15 18 58.712	BL	19	0
B1438-347	14 38 20.391	-34 43 56.902	Q	18	1.159
B1449-012	14 49 12.567	-1 15 17.862	Q	18	1.319
B1451-248	14 51 51.559	-24 53 3.3123	Q	21.7	1.216
B1451-375	14 51 18.471	-37 35 24.202	Q	16.4	0.321
B1451-400	14 51 20.585	-40  0 21.172	Q	18.5	1.81
B1454-354	14 54 19.836	-35 27 9.0123	Q	19.5	1.424
B1504-166	15  4 16.421	-16 40 59.272	Q	18.5	0.876
B1508-055	15  8 14.977	-5 31 48.912	Q	16	1.185
B1510-089	15 10 8.9045	-8 54 47.532	Q	16.5	0.361
B1511-100	15 11 2.2545	-10  0 50.902	Q	18.5	1.513
B1511-210	15 11 3.9395	-21  3 48.452	Q	21.9	1.179
B1514-241	15 14 45.271	-24 11 22.562	BL	15	0.048
B1519-273	15 19 37.244	-27 19 30.222	BL	18.5	0
B1519-294	15 19 22.634	-29 25 43.922	Q	24.3	2.126
B1532+016	15 32 20.2	 1 41 0.69812	Q	18	1.435
B1535+004	15 35 42.557	 0 28 50.898	Q	24.1	3.497
B1550-269	15 50 59.771	-26 55 50.982	Q	21	2.145
B1555+001	15 55 17.697	 0  6 43.598	Q	19	1.77
B1556-245	15 56 41.201	-24 34 10.602	Q	18.5	2.813
B1610-771	16 10 51.475	-77  9 52.371	Q	19.5	1.71
B1619-680	16 19 13.484	-68  2 15.761	Q	18	1.354
B1622-297	16 22 57.243	-29 44 41.381	Q	18.5	0.815
B1625-141	16 25 57.288	-14  9 7.7013	Q	22.4	1.1
B1705+018	17  5 2.7505	 1 52 37.799	Q	18.9	2.568
B1725-795	17 25 7.1116	-79 33 42.3	Q	19.7	0
B1728+004	17 28 1.7605	 0 26 52.2	Q	19.5	1.335
B1730-130	17 30 13.511	-13  2 45.4	Q	18.5	0.902
B1741-038	17 41 20.62	-3 48 48.89	Q	18.5	1.054
B1758-494	17 58 18.044	-49 25 12.28	Q	19.9	2.286
B1801+010	18  1 43.39	 1  1 18.7	Q	19	1.522
B1815-553	18 15 35.152	-55 22 37.93	Q	18.9	0
B1831-711	18 31 41.212	-71 11 14.21	Q	17.8	1.356
B1929-457	19 29 8.1007	-45 43 4.9988	Q	18.5	0.652
B1933-400	19 33 51.211	-40  4 47.299	Q	18	0.965
B1936-155	19 36 36.03	-15 32 38.829	Q	19.5	1.657
B1937-101	19 37 12.653	-10  9 39.509	Q	19	3.787
B1954-388	19 54 39.051	-38 53 14.198	Q	17.5	0.63
B1958-179	19 58 4.6115	-17 57 17.028	Q	18.2	0.65
B2000-330	20  0 13.041	-33  0 12.398	Q	18.5	3.78
B2004-447	20  4 25.145	-44 43 28.778	Q	19.3	0.24
B2005-044	20  5 46.295	-4 27 17.048	Q	18	0.589
B2005-489	20  5 46.561	-48 58 43.468	BL	16	0.071
B2008-159	20  8 25.921	-15 55 38.258	Q	17.1	1.18
B2020-370	20 20 31.471	-37  5 3.6982	Q	17.5	1.048
B2021-330	20 21 26.621	-33  3 21.698	Q	19.9	1.47
B2022-077	20 22 59.599	-7 45 43.048	Q	18.5	1.388
B2037-253	20 37 10.767	-25 18 26.508	Q	18.5	1.574
B2044-168	20 44 30.825	-16 50 9.7779	Q	16.9	1.943
B2047-655	20 47 44.801	-65 34 27.998	Q	17.5	1.145
B2052-474	20 52 50.13	-47 26 19.628	Q	19	1.489
B2054-377	20 54 30.751	-37 45 38.698	Q	17.5	1.071
B2058-297	20 58 0.91757	-29 45 15.158	Q	18	1.492
B2106-413	21  6 19.396	-41 22 33.578	Q	20	1.058
B2123-463	21 23 13.201	-46 18 48.998	Q	18	0
B2126-158	21 26 26.782	-15 51 50.448	Q	17.5	3.275
B2128-123	21 28 52.684	-12 20 20.638	Q	16	0.501
B2131-021	21 31 35.135	-2  6 40.028	Q	19	1.285
B2134+004	21 34 5.2205	 0 28 25.303	Q	17	1.936
B2135-248	21 35 45.406	-24 53 28.507	Q	19.5	0.819
B2141-781	21 40 59.581	-78  9 44.797	Q	20	0
B2142-758	21 42 12.791	-75 50 6.1174	Q	17.7	1.139
B2145-176	21 45 51.482	-17 37 42.857	Q	20	2.13
B2149-307	21 49 0.63055	-30 41 59.997	Q	17.5	2.345
B2153-008	21 53 40.536	 0 51 21.373	BL	22	0.495
B2155-152	21 55 23.246	-15 15 30.207	BL	17	0.672
B2200-238	22  0 7.7225	-23 49 41.727	Q	18.5	2.118
B2203-188	22  3 25.734	-18 50 17.127	Q	19.5	0.619
B2210-257	22 10 14.133	-25 44 22.527	Q	19	1.833
B2215+020	22 15 15.59	 2  5 9.6028	Q	21.5	3.572
B2216-038	22 16 16.385	-3 50 40.747	Q	16.4	0.901
B2221-116	22 21 28.562	-11 41 34.677	BL	19	0.115
B2223-052	22 23 11.082	-5 12 17.917	Q	18.4	1.404
B2224+006	22 24 13.11	 0 36 53.023	Q	21.7	2.248
B2227-088	22 27 2.3415	-8 48 17.747	Q	17.5	1.562
B2227-399	22 27 45.091	-39 58 14.097	Q	18.5	0.323
B2229-172	22 29 41.005	-17 14 29.697	Q	19.5	1.78
B2232-488	22 32 11.464	-48 51 31.077	Q	17	0.51
B2233-173	22 33 28.222	-17 21 55.917	Q	19	0.647
B2243-123	22 43 39.796	-12 22 40.387	Q	17.3	0.632
B2245-128	22 45 14.105	-12 53 11.047	Q	18	1.892
B2245-328	22 45 51.491	-32 51 43.597	Q	16.5	2.268
B2253-278	22 53 16.502	-27 51 58.057	Q	19	1.751
B2254+024	22 54 44.61	 2 27 14.003	Q	18	2.09
B2255-282	22 55 22.465	-28 14 25.747	Q	17	0.926
B2303-052	23  3 40.12	-5 16 1.827	Q	19	1.139
B2311-373	23 11 15.521	-37 21 6.2969	Q	18.5	2.476
B2312-319	23 12 6.4305	-31 55 0.49693	Q	16.5	1.323
B2314-340	23 14 0.95051	-34  5 35.597	Q	18.5	3.1
B2320-035	23 20 57.53	-3 33 33.757	Q	18.6	1.41
B2325-150	23 25 11.599	-15  4 27.427	Q	19	2.465
B2326-477	23 26 33.711	-47 46 51.827	Q	17	1.299
B2326-502	23 26 35.988	-50 12 13.387	Q	19.6	0.518
B2329-162	23 29 2.3985	-16 13 31.007	Q	20	1.153
B2329-384	23 29 18.901	-38 28 18.797	Q	16.2	1.202
B2329-415	23 29 37.821	-41 35 12.597	Q	18.3	0.671
B2332-017	23 32 46.427	-1 47 45.467	Q	18.5	1.184
B2332-293	23 32 40.717	-29 23 52.537	Q	19	0.931
B2333-528	23 33 28.749	-52 52 58.457	Q	18.8	0
B2335-027	23 35 23.257	-2 47 34.737	Q	19.2	1.072
B2335-181	23 35 20.65	-18  8 57.587	Q	17.5	1.441
B2337-334	23 37 16.63	-33 26 56.397	Q	22.5	1.802
B2345-167	23 45 27.687	-16 47 52.727	Q	18.5	0.6
B2351-154	23 51 55.886	-15 29 53.137	Q	19	2.668
B2352-342	23 52 50.93	-34 14 39.097	Q	16.4	0.702
B2353-686	23 53 22.989	-68 36 45.777	Q	17.9	1.716
B2354-117	23 54 57.207	-11 42 21.397	Q	19	0.96
B2355-106	23 55 36.95	-10 36 50.867	Q	18	1.626
B2355-534	23 55 18.165	-53 27 56.127	Q	18.7	1.006
	23 55 18.165	-53 27 56.127		18.7	1.006
