B0003-066  00 03 40.294  -06 40 17.43  BL 19.5 0.347 
B0005-239  00 05 27.472  -23 56 00.12  Q  17.0 1.410 
B0008-264  00 08 28.890  -26 29 14.91  Q  19.0 1.096 
B0013-005  00 13 37.355  -00 31 52.62  Q  19.5 1.575 
B0022-044  00 22 12.738  -04 28 38.60  Q  20.0 1.946 
B0027-426  00 27 51.8    -42 41 25     Q  19.0 0.495 
B0039-407  00 39 37.6    -40 47 06     Q  18.5 2.478 
B0047-579  00 47 48.160  -57 54 47.17  Q  17.8 1.797 
B0048-071  00 48 36.215  -07 06 20.91  Q  19.0 1.975 
B0048-427  00 48 49.023  -42 42 52.05  Q  18.8 1.749 
B0056-572  00 56 38.578  -57 15 22.43  Q  18.3 0     
B0100-760  01 00 55.8    -76 02 59     Q  18.2 1.015 
B0104-275  01 04 02.065  -27 34 13.95  Q  19.0 2.492 
B0104-408  01 04 27.6    -40 50 21     Q  19.0 0.584 
B0106+013  01 06 4.50    +01 18 59.6   Q  18.0 2.094 
B0107-610  01 07 17.161  -61 05 46.93  Q  21.4 0      
B0108-079  01 08 19.011  -07 57 37.61  Q  19.0 1.776 
B0112-017  01 12 43.927  -01 42 55.09  Q  18.0 1.365 
B0113-118  01 13 43.224  -11 52 04.65  Q  18.5 0.670 
B0113-283  01 13 01.532  -28 20 45.58  Q  19.0 2.555 
B0115-016  01 15 42.205  -01 36 16.63  Q  22.5 1.162 
B0116-219  01 16 32.412  -21 57 15.41  Q  19.0 1.165 
B0122-003  01 22 55.181  -00 21 31.33  Q  17.0 1.08  
B0130-171  01 30 17.690  -17 10 12.03  Q  19.0 1.020 
B0133-204  01 33 13.641  -20 24 04.38  Q  18.0 1.144 
B0135-247  01 35 17.115  -24 46 08.84  Q  16.9 0.837 
B0136-059  01 36 20.899  -05 55 21.01  Q  20.0 2.004 
B0142-278  01 42 44.97   -27 48 35.9   Q  18.5 1.155 
B0150-334  01 50 56.97   -33 25 10.1   Q  16.5 0.610 
B0152-513  01 52 25.4    -51 22 32     Q  18.8 1.581 
B0157+011  01 57 29.44   +01 10 41.4   Q  18.5 1.170 
B0202-172  02 02 34.518  -17 15 39.59  Q  18.0 1.740 
B0208-512  02 08 56.958  -51 15 07.80  Q  17.6 1.003 
B0213-026  02 13 09.877  -02 36 51.53  Q  21.6 1.177 
B0215+015  02 15 14.135  +01 31 00.06  BL 18.5 1.715 
B0216+011  02 16 32.43   +01 07 12.9   Q  20.0 1.623 
B0219-164  02 19 38.289  -16 28 55.58  Q  19.0 0.70  
B0220-349  02 20 49.59   -34 55 4.5    Q  22.0 1.49  
B0226-038  02 26 22.083  -03 50 58.58  Q  17.5 2.064 
B0229-398  02 29 52.07   -39 48 58.5   Q  22.3 1.646 
B0230-790  02 30 28.726  -79 01 00.99  Q  18.6 1.07  
B0234-301  02 34 21.61   -30 06 56.1   Q  18.0 2.102 
B0237-027  02 37 13.722  -02 47 32.93  Q  19.0 1.116 
B0240-060  02 40 43.247  -06 03 37.56  Q  19.0 1.805 
B0244-470  02 44 13.4    -47 03 50     Q? 18.5 0      
B0252-549  02 52 00.262  -54 54 02.48  Q  17.9 0.537 
B0254-334  02 54 39.41   -33 27 23.0   Q  17.0 1.915 
B0256-393  02 56 18.465  -39 21 37.86  Q  19.6 3.449 
B0302-623  03 02 48.139  -62 23 04.17  Q  19.1 0      
B0308-611  03 08 51.287  -61 09 58.39  Q  18.6 0      
B0310+013  03 10 8.55    +01 22 4.7    Q  18.5 0.660 
B0312-770  03 12 56.4    -77 02 59     Q  17.2 0.223 
B0315-282  03 15 26.88   -28 14 13.5   Q  20.0 1.166 
B0325-222  03 25 47.501  -22 12 27.37  Q  19.0 2.220 
B0327-241  03 27 43.879  -24 07 23.15  Q  18.8 0.888 
B0329-255  03 29 00.461  -25 34 53.29  Q  17.1 2.685 
B0332-403  03 32 25.238  -40 18 23.82  Q  18.5 1.445 
B0333-729  03 33 03.25   -72 59 04.4   Q  19.3 0      
B0334-131  03 34 13.86   -13 11 55.0   Q  19.0 1.303 
B0335-122  03 35 33.372  -12 13 51.18  Q  21.5 3.450 
B0335-364  03 35 0.02    -36 25 54.4   Q  18.0 1.537 
B0336-019  03 36 58.958  -01 56 16.97  Q  18.4 0.852 
B0338-214  03 38 23.287  -21 29 07.98  BL 17.5 0      
B0341-256  03 41 12.163  -25 39 44.30  Q  19.0 1.419 
B0346-279  03 46 34.032  -27 58 21.01  Q  19.5 0.991 
B0347-211  03 47 45.785  -21 11 50.55  Q  21.1 2.944 
B0348-120  03 48 49.167  -12 02 21.45  Q  19.5 1.520 
B0352-164  03 52 07.962  -16 25 09.01  Q  19.0 1.187 
B0355-079  03 55 17.533  -07 59 48.92  Q  18.0 1.050 
B0355-483  03 55 52.515  -48 20 49.23  Q  17.5 1.016 
B0400-319  04 00 23.611  -31 55 42.00  Q  19.5 1.288 
B0402-362  04 02 02.62   -36 13 11.5   Q  16.5 1.417 
B0403-132  04 03 13.986  -13 16 18.20  Q  17.1 0.571 
B0405-331  04 05 38.50   -33 11 41.8   Q  19.0 2.562 
B0405-385  04 05 11.95   -38 34 26.1   Q  18.0 1.285 
B0406-127  04 06 45.325  -12 46 39.16  Q  18.5 1.563 
B0410-519  04 10 19.1    -51 57 01     Q  17.5 0      
B0414-189  04 14 23.359  -18 58 29.76  Q  18.0 1.536 
B0420+022  04 20 16.04   +02 12 30.0   Q  19.5 2.277 
B0420-014  04 20 43.545  -01 27 28.75  Q  18.0 0.914 
B0421+019  04 21 32.69   +01 57 33.0   Q  17.5 2.048 
B0422+004  04 22 12.50   +00 29 17.1   BL 16.0 0.31  
B0422-380  04 22 56.29   -38 03 09.9   Q  16.5 0.780 
B0431-512  04 31 04.2    -51 15 44     Q  17.7 0.557 
B0434-188  04 34 48.972  -18 50 48.20  Q  20.0 2.702 
B0436-129  04 36 15.599  -12 56 56.82  Q  19.0 1.277 
B0438-436  04 38 43.192  -43 38 53.58  Q  19.5 2.863 
B0440-285  04 40 38.057  -28 31 07.03  Q  19.0 1.952 
B0448-187  04 48 23.677  -18 42 03.93  Q  19.0 2.05  
B0448-392  04 48 0.47    -39 16 15.4   Q  17.5 1.288 
B0451-282  04 51 15.136  -28 12 29.42  Q  19.0 2.564 
B0454-234  04 54 57.306  -23 29 28.35  Q  18.5 1.003 
B0458-020  04 58 41.350  -02 03 33.90  Q  20.0 2.286 
B0511-220  05 11 41.823  -22 02 41.28  Q  19.5 1.296 
B0514-161  05 14 01.082  -16 06 22.65  Q  18.0 1.278 
B0522-611  05 22 00.387  -61 10 41.43  Q  19.0 1.400 
B0524-460  05 24 23.0    -43 20 35     Q  17.3 1.479 
B0528-250  05 28 05.209  -25 05 44.65  Q  19.0 2.813 
B0532-378  05 32 35.258  -37 49 21.47  Q  19.5 1.668 
B0534-340  05 34 39.570  -34 02 58.10  Q  18.3 0.683 
B0537-158  05 37 17.165  -15 52 04.65  Q  18.0 0.947 
B0537-286  05 37 56.938  -28 41 28.07  Q  20.0 3.110 
B0537-441  05 37 21.085  -44 06 44.68  Q  15.0 0.894 
B0539-057  05 39 11.002  -05 43 15.00  Q  20.0 0.893 
B0601-172  06 01 44.770  -17 16 15.82  Q  20.0 2.711 
B0602-424  06 02 52.493  -42 25 14.10  Q  19.0 0.611 
B0605-085  06 05 36.034  -08 34 20.29  Q  18.0 0.872 
B0606-223  06 06 53.387  -22 19 46.24  Q  20.0 1.926 
B0607-157  06 07 25.989  -15 42 03.30  Q  18.0 0.324 
B0610-316  06 10 36.98   -31 38 06.6   Q  18.5 0.873 
B0610-436  06 10 58.458  -43 36 57.15  Q  19.0 3.461 
B0618-252  06 18 29.771  -25 13 52.28  Q  18.2 1.90  
B0622-441  06 22 02.7    -44 11 23     Q  17.5 0.688 
B0629-418  06 29 37.670  -41 52 14.37  Q  17.0 1.416 
B0630-261  06 30 05.368  -26 11 58.47  Q  20.5 0.717 
B0637-752  06 37 23.3    -75 13 37     Q  17.2 0.651 
B0642-349  06 42 37.45   -34 56 34.0   Q  18.5 2.165 
B0646-306  06 46 19.220  -30 40 54.30  Q  20.4 1.153 
B0700-465  07 00 08.857  -46 30 13.58  Q  19.5 0.818 
B0736+017  07 36 42.517  +01 44 00.24  Q  18.0 0.191 
B0738-674  07 38 49.7    -67 28 50     Q  19.8 1.663 
B0743-006  07 43 21.052  -00 36 55.74  Q  18.0 0.994 
B0805-077  08 05 49.560  -07 42 22.33  Q  19.0 1.837 
B0806-710  08 06 46.59   -71 03 26.9   Q  20.0 0.330 
B0834-201  08 34 24.64   -20 06 29.6   Q  19.0 2.752 
B0834-223  08 34 38.521  -22 22 40.17  Q  18.0 0.837 
B0837+012  08 37 14.81   +01 15 06.3   Q  19.0 1.123 
B0859-140  08 59 54.952  -14 03 38.76  Q  16.6 1.333 
B0902-256  09 02 40.886  -25 40 51.39  Q  18.0 1.635 
B0906+015  09 06 35.186  +01 33 48.23  Q  18.0 1.020 
B0915-213  09 15 10.445  -21 18 57.08  Q  18.5 0.847 
B0919-260  09 19 16.710  -26 05 54.46  Q  19.0 2.300 
B0922+005  09 22 33.68   +00 32 12.9   Q  18.5 1.720 
B0925-203  09 25 33.548  -20 21 44.86  Q  16.3 0.348 
B0928+008  09 28 17.99   +00 48 12.6   Q  19.0 0.505 
B0930-338  09 30 30.030  -33 52 38.60  Q  19.5 0.936 
B0933-333  09 33 01.710  -33 19 12.00  Q  20.0 2.906 
B0945-321  09 45 58.86   -32 09 48.5   Q  19.0 2.14  
B1004-018  10 04 31.718  -01 52 30.56  Q  19.2 1.212 
B1004-217  10 04 25.504  -21 44 40.38  Q  16.4 0.330 
B1005-333  10 05 18.54   -33 18 26.9   Q  18.0 1.837 
B1010-427  10 10 32.3    -42 43 39     Q  17.5 2.954 
B1016-311  10 16 12.53   -31 08 51.3   Q  18.5 0.794 
B1021-323  10 21 44.13   -32 19 1.6    Q  19.5 1.568 
B1022-102  10 22 27.600  -10 16 27.92  Q  16.8 2.00  
B1030-357  10 30 51.80   -35 46 31.1   Q  20.5 1.455 
B1032-199  10 32 37.369  -19 56 02.04  Q  18.5 2.198 
B1034-293  10 34 55.831  -29 18 26.85  Q  17.0 0.312 
B1034-374  10 34 38.16   -37 28 35.1   Q  18.5 1.821 
B1036-154  10 36 39.480  -15 25 28.02  Q  19.5 0.525 
B1036-431  10 36 03.060  -43 10 08.80  Q  18.5 1.356 
B1044-128  10 44 35.092  -12 52 42.13  Q  18.0 1.288 
B1045-188  10 45 40.099  -18 53 43.96  Q  19.0 0.595 
B1048-313  10 48 43.390  -31 22 18.50  Q  18.5 1.429 
B1055+018  10 55 55.318  +01 50 03.66  Q  18.2 0.888 
B1055-243  10 55 29.936  -24 17 44.51  Q  19.9 1.086 
B1055-248  10 55 28.893  -24 53 24.68  Q  18.7 0.593 
B1055-301  10 55 37.28   -30 08 51.0   Q  19.5 2.523 
B1057-797  10 57 49.730  -79 47 47.73  Q  19.0 0      
B1101-325  11 01 8.43    -32 35 8.1    Q  15.4 0.355 
B1102-242  11 02 19.813  -24 15 13.72  Q  19.3 1.666 
B1104-445  11 04 50.377  -44 32 52.86  Q  18.0 1.598 
B1105-304  11 05 19.450  -30 27 21.00  Q  20.2 0.740 
B1110-355  11 10 37.70   -35 33 23.1   Q  19.0 1.695 
B1115-122  11 15 46.131  -12 16 29.52  Q  19.0 1.739 
B1118-056  11 18 52.524  -05 37 29.29  Q  19.4 1.297 
B1118-140  11 18 24.773  -14 04 03.09  Q  17.5 1.114 
B1124-186  11 24 34.023  -18 40 46.23  Q  19.0 1.048 
B1127-145  11 27 35.672  -14 32 54.31  Q  16.9 1.184 
B1133-032  11 33 51.249  -03 13 53.15  Q  19.5 1.648 
B1136-135  11 36 38.517  -13 34 05.98  Q  16.0 0.557 
B1136-156  11 36 57.608  -15 36 13.85  Q  20.0 2.625 
B1142-225  11 42 50.231  -22 33 51.38  Q  22.3 1.141 
B1143-245  11 43 36.372  -24 30 52.71  Q  18.0 1.940 
B1143-287  11 43 54.812  -28 42 38.23  Q  20.0 0.45  
B1144-379  11 44 30.83   -37 55 31.0   BL 18.0 1.048 
B1145-071  11 45 18.298  -07 08 00.58  Q  18.5 1.342 
B1148-001  11 48 10.129  -00 07 13.03  Q  17.6 1.978 
B1148-171  11 48 30.375  -17 07 18.49  Q  19.0 1.751 
B1149-084  11 49 43.83   -08 24 22.5   Q  18.5 2.370 
B1156-221  11 56 37.763  -22 11 54.56  Q  20.0 0.565 
B1157-215  11 57 18.316  -21 32 11.35  Q  18.5 0.927 
B1200-051  12 00 00.434  -05 11 20.23  Q  18.0 0.381 
B1206-238  12 06 27.685  -23 49 38.98  Q  18.0 1.299 
B1206-399  12 06 59.4    -39 59 30     Q  16.1 0.966 
B1213-102  12 13 49.833  -10 16 35.47  Q  21.8 0.636 
B1217+023  12 17 38.77   +02 20 20.5   Q  16.5 0.240 
B1226+023  12 26 32.96   +02 19 40.0   Q  12.8 0.158 
B1228-113  12 28 20.042  -11 22 35.84  Q  22.0 3.528 
B1237-101  12 37 07.282  -10 07 00.43  Q  18.0 0.753 
B1243-072  12 43 28.792  -07 14 23.37  Q  18.0 1.286 
B1244-255  12 44 06.718  -25 31 26.55  Q  17.0 0.633 
B1250-330  12 50 14.90   -33 03 42.0   Q  21.4 0.859 
B1253-055  12 53 35.836  -05 31 07.87  Q  17.8 0.536 
B1255-316  12 55 15.20   -31 39 03.5   Q  18.5 1.924 
B1256-177  12 55 59.210  -17 43 52.10  Q  20.2 1.956 
B1256-220  12 56 13.944  -22 03 20.23  Q  20.0 1.306 
B1256-229  12 56 27.611  -22 54 27.99  Q  18.0 1.365 
B1302-034  13 02 08.721  -03 29 58.44  Q  19.4 1.250 
B1302-102  13 02 55.853  -10 17 16.25  Q  15.2 0.286 
B1313-333  13 13 20.045  -33 23 09.57  Q  19.5 1.21  
B1316-120  13 16 33.508  -12 01 47.13  Q* 18.0 0      
B1317+019  13 17 53.72   +01 56 19.6   Q  19.5 1.232 
B1318-263  13 18 28.910  -26 20 28.20  Q  20.4 2.027 
B1319-093  13 19 59.267  -09 21 57.89  Q  18.0 1.864 
B1320-338  13 20 27.79   -33 51 33.9   Q  20.0 1.346 
B1321-105  13 21 47.65   -10 33 46.6   Q  18.5 0.872 
B1327-311  13 27 29.97   -31 07 31.0   Q  18.5 1.326 
B1328-263  13 28 25.189  -26 23 43.13  Q  17.4 0.883 
B1334-127  13 34 59.808  -12 42 09.62  Q  18.5 0.541 
B1336-237  13 36 15.749  -23 46 01.27  Q  19.0 0.657 
B1336-260  13 36 32.491  -26 05 18.27  Q  20.5 1.51  
B1337-013  13 37 30.119  -01 22 35.93  Q  19.1 1.619 
B1339-287  13 39 25.878  -28 45 34.79  Q  19.5 1.442 
B1346-113  13 46 51.537  -11 18 01.14  Q  17.5 0.34  
B1348-289  13 48 55.863  -28 57 29.08  Q  20.0 1.034 
B1351-018  13 51 32.037  -01 51 19.94  Q  20.9 3.709 
B1352-104  13 52 06.834  -10 26 20.65  Q  17.5 0.332 
B1356+022  13 56 54.602  +02 14 26.44  Q  18.3 1.329 
B1359-281  13 59 10.599  -28 07 58.38  Q  20.9 0.803 
B1401+000  14 01 38.295  +00 00 56.38  Q  19.0 0.802 
B1402-012  14 02 11.297  -01 16 01.68  Q  18.2 2.518 
B1403-085  14 03 21.651  -08 33 49.30  Q  18.5 1.763 
B1404-342  14 04 57.200  -34 17 14.20  Q  17.7 1.122 
B1406-076  14 06 17.903  -07 38 15.81  Q  20.0 1.494 
B1406-267  14 06 58.431  -26 43 27.76  Q  21.8 2.43  
B1415-349  14 15 58.71   -34 55 54.4   Q  19.5 1.544 
B1424-418  14 24 46.722  -41 52 54.49  Q  18.0 1.522 
B1430-155  14 30 36.125  -15 35 34.78  Q  22.8 1.583 
B1430-178  14 30 10.652  -17 48 24.24  Q  19.0 2.331 
B1435-218  14 35 18.663  -21 51 57.78  Q  17.9 1.194 
B1437-153  14 37 11.340  -15 18 58.71  BL 19.0 0      
B1438-347  14 38 20.39   -34 43 56.9   Q  18.0 1.159 
B1449-012  14 49 12.567  -01 15 17.86  Q  18.0 1.319 
B1451-248  14 51 51.558  -24 53 03.31  Q  21.7 1.216 
B1451-375  14 51 18.47   -37 35 24.2   Q  16.4 0.321 
B1451-400  14 51 20.584  -40 00 21.17  Q  18.5 1.81  
B1454-354  14 54 19.835  -35 27 09.01  Q  19.5 1.424 
B1504-166  15 04 16.420  -16 40 59.27  Q  18.5 0.876 
B1508-055  15 08 14.977  -05 31 48.91  Q  16.0 1.185 
B1510-089  15 10 08.904  -08 54 47.53  Q  16.5 0.361 
B1511-100  15 11 02.254  -10 00 50.90  Q  18.5 1.513 
B1511-210  15 11 03.939  -21 03 48.45  Q  21.9 1.179 
B1514-241  15 14 45.270  -24 11 22.56  BL 15.0 0.048 
B1519-273  15 19 37.243  -27 19 30.22  BL 18.5 0      
B1519-294  15 19 22.633  -29 25 43.92  Q  24.3 2.126 
B1532+016  15 32 20.20   +01 41 0.7    Q  18.0 1.435 
B1535+004  15 35 42.557  +00 28 50.90  Q  24.1 3.497 
B1550-269  15 50 59.770  -26 55 50.98  Q  21.0 2.145 
B1555+001  15 55 17.697  +00 06 43.60  Q  19.0 1.77  
B1556-245  15 56 41.20   -24 34 10.6   Q  18.5 2.813 
B1610-771  16 10 51.474  -77 09 52.37  Q  19.5 1.710 
B1619-680  16 19 13.483  -68 02 15.76  Q  18.0 1.354 
B1622-297  16 22 57.242  -29 44 41.38  Q  18.5 0.815 
B1625-141  16 25 57.287  -14 09 07.70  Q  22.4 1.10  
B1705+018  17 05 02.75   +01 52 37.8   Q  18.9 2.568 
B1725-795  17 25 07.11   -79 33 42.3   Q  19.7 0      
B1728+004  17 28 1.76    +00 26 52.2   Q  19.5 1.335 
B1730-130  17 30 13.51   -13 02 45.4   Q  18.5 0.902 
B1741-038  17 41 20.620  -03 48 48.89  Q  18.5 1.054 
B1758-494  17 58 18.043  -49 25 12.28  Q  19.9 2.286 
B1801+010  18 01 43.39   +01 01 18.7   Q  19.0 1.522 
B1815-553  18 15 35.151  -55 22 37.93  Q  18.9 0      
B1831-711  18 31 41.211  -71 11 14.21  Q  17.8 1.356 
B1929-457  19 29 08.1    -45 43 05     Q  18.5 0.652 
B1933-400  19 33 51.21   -40 04 47.3   Q  18.0 0.965 
B1936-155  19 36 36.029  -15 32 38.83  Q  19.5 1.657 
B1937-101  19 37 12.652  -10 09 39.51  Q  19.0 3.787 
B1954-388  19 54 39.05   -38 53 14.2   Q  17.5 0.630 
B1958-179  19 58 04.611  -17 57 17.03  Q  18.2 0.65  
B2000-330  20 00 13.04   -33 00 12.4   Q  18.5 3.780 
B2004-447  20 04 25.144  -44 43 28.78  Q  19.3 0.240 
B2005-044  20 05 46.295  -04 27 17.05  Q  18.0 0.589 
B2005-489  20 05 46.560  -48 58 43.47  BL 16.0 0.071 
B2008-159  20 08 25.920  -15 55 38.26  Q  17.1 1.180 
B2020-370  20 20 31.47   -37 05 03.7   Q  17.5 1.048 
B2021-330  20 21 26.62   -33 03 21.7   Q  19.9 1.47  
B2022-077  20 22 59.598  -07 45 43.05  Q  18.5 1.388 
B2037-253  20 37 10.766  -25 18 26.51  Q  18.5 1.574 
B2044-168  20 44 30.824  -16 50 09.78  Q  16.9 1.943 
B2047-655  20 47 44.8    -65 34 28     Q  17.5 1.145 
B2052-474  20 52 50.129  -47 26 19.63  Q  19.0 1.489 
B2054-377  20 54 30.75   -37 45 38.7   Q  17.5 1.071 
B2058-297  20 58 00.917  -29 45 15.16  Q  18.0 1.492 
B2106-413  21 06 19.395  -41 22 33.58  Q  20.0 1.058 
B2123-463  21 23 13.2    -46 18 49     Q  18.0 0      
B2126-158  21 26 26.781  -15 51 50.45  Q  17.5 3.275 
B2128-123  21 28 52.683  -12 20 20.64  Q  16.0 0.501 
B2131-021  21 31 35.135  -02 06 40.03  Q  19.0 1.285 
B2134+004  21 34 5.22    +00 28 25.3   Q  17.0 1.936 
B2135-248  21 35 45.405  -24 53 28.51  Q  19.5 0.819 
B2141-781  21 40 59.58   -78 09 44.8   Q  20.0 0      
B2142-758  21 42 12.790  -75 50 06.12  Q  17.7 1.139 
B2145-176  21 45 51.481  -17 37 42.86  Q  20.0 2.130 
B2149-307  21 49 0.63    -30 42 00.0   Q  17.5 2.345 
B2153-008  21 53 40.536  -00 51 21.37  BL 22.0 0.495 
B2155-152  21 55 23.245  -15 15 30.21  BL 17.0 0.672 
B2200-238  22 00 07.722  -23 49 41.73  Q  18.5 2.118 
B2203-188  22 03 25.733  -18 50 17.13  Q  19.5 0.619 
B2210-257  22 10 14.132  -25 44 22.53  Q  19.0 1.833 
B2215+020  22 15 15.59   +02 05 09.6   Q  21.5 3.572 
B2216-038  22 16 16.385  -03 50 40.75  Q  16.4 0.901 
B2221-116  22 21 28.562  -11 41 34.68  BL 19.0 0.115 
B2223-052  22 23 11.082  -05 12 17.92  Q  18.4 1.404 
B2224+006  22 24 13.110  +00 36 53.02  Q  21.7 2.248 
B2227-088  22 27 02.341  -08 48 17.75  Q  17.5 1.562 
B2227-399  22 27 45.09   -39 58 14.1   Q  18.5 0.323 
B2229-172  22 29 41.004  -17 14 29.70  Q  19.5 1.780 
B2232-488  22 32 11.463  -48 51 31.08  Q  17.0 0.510 
B2233-173  22 33 28.221  -17 21 55.92  Q  19.0 0.647 
B2243-123  22 43 39.796  -12 22 40.39  Q  17.3 0.632 
B2245-128  22 45 14.105  -12 53 11.05  Q  18.0 1.892 
B2245-328  22 45 51.49   -32 51 43.6   Q  16.5 2.268 
B2253-278  22 53 16.501  -27 51 58.06  Q  19.0 1.751 
B2254+024  22 54 44.61   +02 27 14.0   Q  18.0 2.090 
B2255-282  22 55 22.464  -28 14 25.75  Q  17.0 0.926 
B2303-052  23 03 40.120  -05 16 01.83  Q  19.0 1.139 
B2311-373  23 11 15.52   -37 21 06.3   Q  18.5 2.476 
B2312-319  23 12 6.43    -31 55 00.5   Q  16.5 1.323 
B2314-340  23 14 00.95   -34 05 35.6   Q  18.5 3.1   
B2320-035  23 20 57.530  -03 33 33.76  Q  18.6 1.410 
B2325-150  23 25 11.599  -15 04 27.43  Q  19.0 2.465 
B2326-477  23 26 33.710  -47 46 51.83  Q  17.0 1.299 
B2326-502  23 26 35.987  -50 12 13.39  Q  19.6 0.518 
B2329-162  23 29 02.398  -16 13 31.01  Q  20.0 1.153 
B2329-384  23 29 18.90   -38 28 18.8   Q  16.2 1.202 
B2329-415  23 29 37.82   -41 35 12.6   Q  18.3 0.671 
B2332-017  23 32 46.427  -01 47 45.47  Q  18.5 1.184 
B2332-293  23 32 40.717  -29 23 52.54  Q  19.0 0.931 
B2333-528  23 33 28.748  -52 52 58.46  Q  18.8 0      
B2335-027  23 35 23.257  -02 47 34.74  Q  19.2 1.072 
B2335-181  23 35 20.650  -18 08 57.59  Q  17.5 1.441 
B2337-334  23 37 16.630  -33 26 56.40  Q  22.5 1.802 
B2345-167  23 45 27.687  -16 47 52.73  Q  18.5 0.600 
B2351-154  23 51 55.886  -15 29 53.14  Q  19.0 2.668 
B2352-342  23 52 50.93   -34 14 39.1   Q  16.4 0.702 
B2353-686  23 53 22.989  -68 36 45.78  Q  17.9 1.716 
B2354-117  23 54 57.207  -11 42 21.40  Q  19.0 0.960 
B2355-106  23 55 36.950  -10 36 50.87  Q  18.0 1.626 
B2355-534  23 55 18.165  -53 27 56.13  Q  18.7 1.006

